ST558 - Homework #5
…
2. Create a new variable that is a factor version of the HeartDisease variable (if needed, this depends on how you read in your data). Remove the ST_Slope variable and the original HeartDisease variable (if applicable).

#Got rid of Cholesterol values that were not possible (tipped off from the message boards), set HeartDisease as a factor and replaced the existing column with the factorized one, and finally removed ST_Slope from the tibble. 
heart_data <- heart_data |>
  filter(Cholesterol > 0) |>
  mutate(HeartDisease = as.factor(HeartDisease)) %>%
  select(-ST_Slope)
print(heart_data)

# A tibble: 746 × 11
     Age Sex   ChestPainType RestingBP Cholesterol FastingBS RestingECG MaxHR
   <int> <chr> <chr>             <int>       <int>     <int> <chr>      <int>
 1    40 M     ATA                 140         289         0 Normal       172
 2    49 F     NAP                 160         180         0 Normal       156
 3    37 M     ATA                 130         283         0 ST            98
 4    48 F     ASY                 138         214         0 Normal       108
 5    54 M     NAP                 150         195         0 Normal       122
 6    39 M     NAP                 120         339         0 Normal       170
 7    45 F     ATA                 130         237         0 Normal       170
 8    54 M     ATA                 110         208         0 Normal       142
 9    37 M     ASY                 140         207         0 Normal       130
10    48 F     ATA                 120         284         0 Normal       120
# ℹ 736 more rows
# ℹ 3 more variables: ExerciseAngina <chr>, Oldpeak <dbl>, HeartDisease <fct>
…
Create dummy columns corresponding to the values of these three variables for use in our kNN fit. The caret vignette has a function to help us out here. You should use dummyVars() and predict() to create new columns. Then add these columns to our data frame.

#Created a dummy object `dmy` with the columns that I want to "dummify".
dmy <- dummyVars("~ Sex + ChestPainType + RestingECG + ExerciseAngina", heart_data)
#Create a predict_heartdata object to hold the predicted dmy values for adding to the main tibble. 
pred_hd <- predict(dmy, heart_data)

#Adding the predicted values to the table while removed their non-predictive variants. 
heart_data <- bind_cols(
  heart_data %>%
    select(-Sex, -ExerciseAngina, -ChestPainType, -RestingECG), pred_hd)
print(heart_data)

# A tibble: 746 × 18
     Age RestingBP Cholesterol FastingBS MaxHR Oldpeak HeartDisease  SexF  SexM
   <int>     <int>       <int>     <int> <int>   <dbl> <fct>        <dbl> <dbl>
 1    40       140         289         0   172     0   0                0     1
 2    49       160         180         0   156     1   1                1     0
 3    37       130         283         0    98     0   0                0     1
 4    48       138         214         0   108     1.5 1                1     0
 5    54       150         195         0   122     0   0                0     1
 6    39       120         339         0   170     0   0                0     1
 7    45       130         237         0   170     0   0                1     0
 8    54       110         208         0   142     0   0                0     1
 9    37       140         207         0   130     1.5 1                0     1
10    48       120         284         0   120     0   0                1     0
# ℹ 736 more rows
# ℹ 9 more variables: ChestPainTypeASY <dbl>, ChestPainTypeATA <dbl>,
#   ChestPainTypeNAP <dbl>, ChestPainTypeTA <dbl>, RestingECGLVH <dbl>,
#   RestingECGNormal <dbl>, RestingECGST <dbl>, ExerciseAnginaN <dbl>,
#   ExerciseAnginaY <dbl>
…
